…
So far in 2021, only January and February have been well below expectation. This is likely due to the third national lockdown imposed by the government forcing households to remain at home. Since the relaxing of restrictions average daily rentals have remained somewhat in line with expectation.

We then do the same with weekly data but calculate excess(+/-) rentals as percent of expected weekly rentals.

Before building the dataset, we first need to check if our previous steps have correctly categorized data for week 1, 52 and 53. It is highly possible that the first few days of a year is labelled week 52 or 53 for the previous year, or the last few days of a year is labelled week 1 for the next year. Obviously you can’t have 10 days in your week 52 data.

#Display all week 1, 52 and 53 data
bike %>%
  filter(year >= 2016,
         week %in% c(1, 52, 53) )

## # A tibble: 87 × 5
##    day                 bikes_hired  year month  week
##    <dttm>                    <dbl> <dbl> <ord> <dbl>
##  1 2016-01-01 00:00:00        9922  2016 Jan      53
##  2 2016-01-02 00:00:00        7246  2016 Jan      53
##  3 2016-01-03 00:00:00        4894  2016 Jan      53
##  4 2016-01-04 00:00:00       20644  2016 Jan       1
##  5 2016-01-05 00:00:00       22934  2016 Jan       1
##  6 2016-01-06 00:00:00       23199  2016 Jan       1
##  7 2016-01-07 00:00:00       18225  2016 Jan       1
##  8 2016-01-08 00:00:00       20948  2016 Jan       1
##  9 2016-01-09 00:00:00       11674  2016 Jan       1
## 10 2016-01-10 00:00:00       14447  2016 Jan       1
## # … with 77 more rows
…
#For all week 1 data in December, move their year label to the next year
bike_adjust$year <- if_else(bike_adjust$week == 1 & bike_adjust$month == "Dec",
                            bike_adjust$year + 1,
                            bike_adjust$year)

#Display all week 1, 52 and 53 data
bike_adjust %>%
  filter(year >= 2016,
         week %in% c(1, 52, 53) )

## # A tibble: 84 × 5
##    day                 bikes_hired  year month  week
##    <dttm>                    <dbl> <dbl> <ord> <dbl>
##  1 2016-01-04 00:00:00       20644  2016 Jan       1
##  2 2016-01-05 00:00:00       22934  2016 Jan       1
##  3 2016-01-06 00:00:00       23199  2016 Jan       1
##  4 2016-01-07 00:00:00       18225  2016 Jan       1
##  5 2016-01-08 00:00:00       20948  2016 Jan       1
##  6 2016-01-09 00:00:00       11674  2016 Jan       1
##  7 2016-01-10 00:00:00       14447  2016 Jan       1
##  8 2016-12-26 00:00:00       11637  2016 Dec      52
##  9 2016-12-27 00:00:00       11003  2016 Dec      52
## 10 2016-12-28 00:00:00       12530  2016 Dec      52
## # … with 74 more rows

We have now taken care of the mislabeling issue. To make sure of this, let’s look at how many days are in each week of each year.

#Count how many days are in each week and order the table by the count
bike_adjust %>% 
  filter(year >= 2016) %>% 
  group_by(year, week) %>% 
  summarize(number_of_days = count(week)) %>% 
  arrange(number_of_days)

## # A tibble: 296 × 3
## # Groups:   year [6]
##     year  week number_of_days
##    <dbl> <dbl>          <int>
##  1  2021    35              2
##  2  2016     1              7
##  3  2016     2              7
##  4  2016     3              7
##  5  2016     4              7
##  6  2016     5              7
##  7  2016     6              7
##  8  2016     7              7
##  9  2016     8              7
## 10  2016     9              7
## # … with 286 more rows
…
