…
#Create the summary dataset
myStocks_monthly_returns <- myStocks_returns_monthly %>%
  group_by(symbol) %>% 
  summarise(Mean = mean(monthly_returns),
            Minimum = min(monthly_returns),
            Maximum = max(monthly_returns),
            Median = median(monthly_returns),
            StandardDeviation = sd(monthly_returns)) %>%
  arrange(desc(Mean))

#Display the summary in table
myStocks_monthly_returns

## # A tibble: 31 × 6
##    symbol   Mean Minimum Maximum Median StandardDeviation
##    <chr>   <dbl>   <dbl>   <dbl>  <dbl>             <dbl>
##  1 AAPL   0.0269  -0.577   0.454 0.0352            0.115 
##  2 CRM    0.0262  -0.360   0.403 0.0205            0.110 
##  3 V      0.0199  -0.196   0.338 0.0256            0.0660
##  4 UNH    0.0193  -0.306   0.266 0.0232            0.0700
##  5 NKE    0.0164  -0.375   0.396 0.0169            0.0758
##  6 DOW    0.0160  -0.276   0.255 0.0386            0.109 
##  7 CAT    0.0144  -0.353   0.350 0.0141            0.0899
##  8 BA     0.0126  -0.458   0.459 0.0165            0.0925
##  9 MSFT   0.0115  -0.344   0.408 0.0177            0.0820
## 10 JPM    0.0111  -0.281   0.255 0.0161            0.0868
## # … with 21 more rows
…
# parse HTML tables into a dataframe called polls 
# Use purr::map() to create a list of all tables in URL
polls <- map(tables, . %>% 
             html_table(fill=TRUE)%>% 
             janitor::clean_names())

polls

## [[1]]
## # A tibble: 252 × 13
##    polling_firm    fieldwork_date samplesize abs   union   spd  af_d   fdp linke
##    <chr>           <chr>          <chr>      <chr> <dbl> <dbl> <dbl> <dbl> <dbl>
##  1 Polling firm    Fieldwork date Samplesize Abs.   NA    NA    NA    NA    NA  
##  2 2021 federal e… 26 Sep 2021    –          23.4   24.1  25.7  10.3  11.5   4.9
##  3 Wahlkreisprogn… 22–24 Sep 2021 1,400      –      22.5  25.5  11    12     7  
##  4 Ipsos           22–23 Sep 2021 2,000      –      22    26    11    12     7  
##  5 Forschungsgrup… 22–23 Sep 2021 1,273      –      23    25    10    11     6  
##  6 Forsa           20–23 Sep 2021 2,002      26     22    25    10    12     6  
##  7 Allensbach      16–23 Sep 2021 1,554      –      25    26    10    10.5   5  
##  8 Civey           16–23 Sep 2021 10,012     –      23    25    10    12     6  
##  9 YouGov          16–22 Sep 2021 2,364      –      21    25    12    11     7  
## 10 Wahlkreisprogn… 20–21 Sep 2021 1,801      –      21.5  25    11    12.5   6.5
## # … with 242 more rows, and 4 more variables: grune <dbl>, fw <chr>,
## #   others <chr>, lead <chr>
## 
## [[2]]
## # A tibble: 226 × 12
##    polling_firm    fieldwork_date samplesize abs   union   spd  af_d   fdp linke
##    <chr>           <chr>          <chr>      <chr> <dbl> <dbl> <dbl> <dbl> <dbl>
##  1 Polling firm    Fieldwork date Samplesize Abs.     NA  NA      NA    NA  NA  
##  2 Forsa           21–23 Dec 2020 1,501      –        36  15       9     6   9  
##  3 INSA            18–21 Dec 2020 2,055      –        35  16      11     8   7.5
##  4 Forsa           14–18 Dec 2020 2,505      23       37  15       8     6   8  
##  5 Kantar          10–16 Dec 2020 2,401      –        35  17      10     6   8  
##  6 INSA            11–14 Dec 2020 2,002      –        36  17      10     7   7.5
##  7 Forsa           7–11 Dec 2020  2,503      23       37  15       8     5   8  
##  8 Allensbach      28 Nov–10 Dec… 1,022      –        37  16.5     9     7   7  
##  9 Infratest dimap 7–9 Dec 2020   1,004      –        36  16       9     6   7  
## 10 Forschungsgrup… 7–9 Dec 2020   1,246      25       37  16      10     5   8  
## # … with 216 more rows, and 3 more variables: grune <dbl>, others <chr>,
## #   lead <chr>
## 
## [[3]]
## # A tibble: 234 × 12
##    polling_firm    fieldwork_date samplesize abs   union   spd  af_d   fdp linke
##    <chr>           <chr>          <chr>      <chr> <dbl> <dbl> <dbl> <dbl> <dbl>
##  1 Polling firm    Fieldwork date Samplesize Abs.     NA    NA    NA  NA    NA  
##  2 INSA            20–23 Dec 2019 2,034      –        28    13    15  10     8  
##  3 Forsa           16–20 Dec 2019 2,501      23       28    13    13   8     8  
##  4 Emnid           12–18 Dec 2019 1,899      –        27    15    14   9     9  
##  5 YouGov          13–17 Dec 2019 1,586      –        27    13    15   7    10  
##  6 INSA            13–16 Dec 2019 2,020      –        27    13    15   8.5   9.5
##  7 Forsa           9–13 Dec 2019  2,502      22       28    12    13   8     9  
##  8 Forschungsgrup… 10–12 Dec 2019 1,366      –        27    13    14   8     9  
##  9 Infratest dimap 10–11 Dec 2019 1,038      –        27    14    15   8     8  
## 10 Emnid           5–11 Dec 2019  1,978      –        28    16    13   9     9  
## # … with 224 more rows, and 3 more variables: grune <dbl>, others <chr>,
## #   lead <chr>
## 
## [[4]]
## # A tibble: 253 × 12
##    polling_firm    fieldwork_date samplesize abs   union   spd  af_d   fdp linke
##    <chr>           <chr>          <chr>      <chr> <dbl> <dbl> <dbl> <dbl> <dbl>
##  1 Polling firm    Fieldwork date Samplesize Abs.     NA    NA    NA  NA    NA  
##  2 YouGov          21–27 Dec 2018 1,665      –        30    16    14   8    10  
##  3 INSA            20–21 Dec 2018 1,029      –        29    14    15   9     9  
##  4 Forsa           17–21 Dec 2018 2,504      24       31    14    13   8     8  
##  5 Emnid           13–19 Dec 2018 1,889      –        29    15    14   9     9  
##  6 INSA            14–17 Dec 2018 2,077      –        29    15    15   9.5   9.5
##  7 Forsa           10–14 Dec 2018 2,507      24       32    15    12   8     8  
##  8 Forschungsgrup… 11–13 Dec 2018 1,268      –        30    15    15   7     9  
##  9 Infratest dimap 11–12 Dec 2018 1,048      –        31    15    13   8     8  
## 10 Emnid           6–12 Dec 2018  1,997      –        30    15    14   8     8  
## # … with 243 more rows, and 3 more variables: grune <dbl>, others <chr>,
## #   lead <chr>
## 
## [[5]]
## # A tibble: 68 × 12
##    polling_firm    fieldwork_date samplesize abs   union   spd  af_d   fdp linke
##    <chr>           <chr>          <chr>      <chr> <dbl> <dbl> <dbl> <dbl> <dbl>
##  1 Polling firm    Fieldwork date Samplesize Abs.     NA  NA      NA  NA      NA
##  2 YouGov          25–27 Dec 2017 1,489      –        33  21      13   9      10
##  3 INSA            21–22 Dec 2017 2,203      –        33  20.5    13  10.5    10
##  4 Forsa           18–22 Dec 2017 2,504      21       34  19      12   8      10
##  5 Emnid           14–20 Dec 2017 1,861      –        33  21      12   8      10
##  6 INSA            15–18 Dec 2017 2,031      –        31  21      14   9      11
##  7 Forsa           11–15 Dec 2017 2,501      21       33  20      12   8      10
##  8 Allensbach      1–14 Dec 2017  1,443      –        34  21      11  10       9
##  9 Infratest dimap 11–13 Dec 2017 1,029      –        32  20      13   9       9
## 10 Emnid           7–13 Dec 2017  1,865      –        32  22      13   8       9
## # … with 58 more rows, and 3 more variables: grune <dbl>, others <chr>,
## #   lead <chr>
## 
## [[6]]
## # A tibble: 212 × 12
##    polling_firm    fieldwork_date samplesize   cdu   spd  af_d   fdp linke grune
##    <chr>           <chr>          <chr>      <dbl> <dbl> <dbl> <dbl> <dbl> <dbl>
##  1 Polling firm    Fieldwork date Samplesize  NA    NA    NA    NA    NA    NA  
##  2 2021 federal e… 26 Sep 2017    –           18.9  25.7  10.3  11.5   4.9  14.8
##  3 INSA            17–20 Sep 2021 2,054       17    25    11    12     6.5  15  
##  4 INSA            10–13 Sep 2021 2,062       16    26    11.5  12.5   6.5  15  
##  5 INSA            3–6 Sep 2021   2,052       15.5  26    11    12.5   6.5  15.5
##  6 INSA            27–30 Aug 2021 2,015       15    25    11    13.5   7    16.5
##  7 INSA            20–23 Aug 2021 2,119       18    23    11    13     7    17  
##  8 INSA            13–16 Aug 2021 2,080       20    20    11    12.5   6.5  17.5
##  9 INSA            6–9 Aug 2021   2,118       20.5  17.5  11.5  12.5   6.5  17.5
## 10 INSA            30 Jul–2 Aug … 2,080       22.5  18    11    13     7    18  
## # … with 202 more rows, and 3 more variables: csu <dbl>, others <chr>,
## #   lead <chr>
## 
## [[7]]
## # A tibble: 5 × 11
##   polling_firm    fieldwork_date  samplesize   cdu   spd grune   fdp  af_d linke
##   <chr>           <chr>           <chr>      <dbl> <dbl> <dbl> <dbl> <dbl> <dbl>
## 1 Polling firm    Fieldwork date  Samplesize  NA    NA    NA    NA    NA    NA  
## 2 2021 federal e… 26 Sep 2021     –           24.8  21.6  17.2  15.3   9.6   3.3
## 3 Forsa           29 Jan – 1 Feb… 1,007       33    10    24    10    12     6  
## 4 Forsa           8–22 Feb 2018   1,003       35    13    17    11    12     8  
## 5 2017 federal e… 24 Sep 2017     –           34.4  16.4  13.5  12.7  12.2   6.4
## # … with 2 more variables: others <chr>, lead <chr>
## 
## [[8]]
## # A tibble: 25 × 12
##    polling_firm    fieldwork_date samplesize   csu   spd  af_d   fdp grune linke
##    <chr>           <chr>          <chr>      <dbl> <dbl> <dbl> <dbl> <dbl> <dbl>
##  1 Polling firm    Fieldwork date Samplesize  NA      NA    NA  NA    NA    NA  
##  2 2021 federal e… 26 Sep 2021    –           31.7    18     9  10.5  14.1   2.8
##  3 GMS             13–15 Sep 2021 1,002       29      17    11  13    16     5  
##  4 GMS             8–13 Sep 2021  1,005       28      18    11  12    17     4  
##  5 Infratest dimap 2–6 Sep 2021   1,195       28      18    10  12    16     3  
##  6 GMS             1–6 Sep 2021   1,003       29      15    10  13    18     3  
##  7 GMS             21–27 Jul 2021 1,003       35       9     9  12    20     4  
##  8 INSA            12–19 Jul 2021 1,000       36      11     9   9    19     4  
##  9 Infratest dimap 2–6 Jul 2021   1,186       36       9    10  11    18     4  
## 10 GMS             16–21 Jun 2021 1,007       34      10     9  11    22     3  
## # … with 15 more rows, and 3 more variables: free_voters <chr>, others <chr>,
## #   lead <chr>
## 
## [[9]]
## # A tibble: 31 × 11
##    polling_firm   fieldwork_date  samplesize   cdu linke   spd grune  af_d   fdp
##    <chr>          <chr>           <chr>      <dbl> <dbl> <dbl> <dbl> <dbl> <dbl>
##  1 Polling firm   Fieldwork date  Samplesize  NA    NA    NA    NA    NA    NA  
##  2 2021 federal … 26 Sep 2021     –           15.9  11.4  23.5  22.4   8.4   8.1
##  3 Forsa          29 Jan – 6 Feb… 1,001       21    16    12    26    10     6  
##  4 Forsa          12–19 Dec 2019  1,005       21    16    13    24    10     7  
##  5 Forsa          21–26 Nov 2019  1,006       20    16    14    24    11     7  
##  6 Forsa          22–31 Oct 2019  1,002       22    15    13    24    11     6  
##  7 Forsa          17–26 Sep 2019  1,002       22    15    13    24    11     7  
##  8 Forsa          20–29 Aug 2019  1,003       22    17    14    24    10     7  
##  9 Forsa          17–25 Jul 2019  1,001       22    17    14    24    10     6  
## 10 Forsa          17–27 Jun 2019  1,004       21    16    14    24    11     7  
## # … with 21 more rows, and 2 more variables: others <chr>, lead <chr>
## 
## [[10]]
…
## 6 2017 federal el… 24 Sep 2017    –           27    26.9  16.1  10.5   8.2   4.6
## # … with 2 more variables: others <chr>, lead <chr>
## 
## [[18]]
## # A tibble: 4 × 11
##   polling_firm     fieldwork_date samplesize   cdu  af_d linke   spd   fdp grune
##   <chr>            <chr>          <chr>      <dbl> <dbl> <dbl> <dbl> <dbl> <dbl>
## 1 Polling firm     Fieldwork date Samplesize  NA    NA    NA    NA    NA    NA  
## 2 2021 federal el… 26 Sep 2021    –           16.9  24    11.4  23.4   9     6.6
## 3 INSA             16–23 Aug 2021 1,000       18    22    18    21     9     5  
## 4 2017 federal el… 24 Sep 2017    –           28.8  22.7  16.9  13.2   7.8   4.1
## # … with 2 more variables: others <chr>, lead <chr>
## 
## [[19]]
## # A tibble: 69 × 25
##    polling_firm       fieldwork_date  samplesize spd_union spd_union_2 union_fdp
##    <chr>              <chr>           <chr>          <int>       <int> <chr>    
##  1 Polling firm       Fieldwork date  Samplesize        NA          NA ""       
##  2 Forschungsgruppe … 14–16 Sep 2021  1,406              9           9 "8"      
##  3 Forschungsgruppe … 7–9 Sep 2021    1,281              9           9 "7"      
##  4 Forschungsgruppe … 31 Aug–2 Sep 2… 1,301             12          12 "8"      
##  5 Forschungsgruppe … 24–26 Aug 2021  1,300             10          10 "6"      
##  6 Forschungsgruppe … 10–12 Aug 2021  1,252             12          12 "10"     
##  7 Forschungsgruppe … 27–29 Jul 2021  1,268             13          13 "10"     
##  8 Forschungsgruppe … 13–15 Jul 2021  1,224             13          13 "11"     
##  9 Forschungsgruppe … 22–24 Jun 2021  1,271             11          11 "11"     
## 10 Civey              8–9 Jun 2021    5,005              6           6 "–"      
## # … with 59 more rows, and 19 more variables: union_fdp_2 <chr>,
## #   spd_grune <chr>, spd_grune_2 <chr>, union_grune <int>, union_grune_2 <int>,
## #   spd_grune_linke <int>, spd_grune_linke_2 <int>, spd_grune_linke_3 <int>,
## #   union_grune_fdp <int>, union_grune_fdp_2 <int>, union_grune_fdp_3 <int>,
## #   spd_union_fdp <chr>, spd_union_fdp_2 <chr>, spd_union_fdp_3 <chr>,
## #   spd_grune_fdp <chr>, spd_grune_fdp_2 <chr>, spd_grune_fdp_3 <chr>,
## #   spdfdp <chr>, spdfdp_2 <chr>
## 
## [[20]]
…
